[
    {   
        "key": 1,
        "title": "ДПС МВД КР — 0 (312) 63-09-00, 63-09-01."
    },
    {   
        "key": 2,
        "title": "ДПС ГУВД Бишкека — 0 (312) 53-01-81, 53-22-33."
    },
    {
        "key": 3,
        "title": "ДПС ГУВД Чуйской области — 0 (312) 61-69-17."
    },
    {
        "key": 4,
        "title": "ДПС УВД Оша — 0 (322) 23-95-63."
    },
    {
        "key": 5,
        "title": "ДПС УВД Ошской области — 0 (322) 22-25-46."
    },
    {
        "key": 6,
        "title": "ДПС УВД Джалал-Абадской области — 0 (372) 25-00-71."
    },
    {
        "key": 7,
        "title": "ДПС УВД Баткенской области — 0 (362) 25-00-48."
    },
    {
        "key": 8,
        "title": "ДПС УВД Нарынской области — 0 (352) 25-31-76."
    },
    {
        "key": 9,
        "title": "ДПС УВД Таласской области — 0 (342) 25-31-76."
    },
    {
        "key": 10,
        "title": "ДПС УВД Иссык-Кульской области — 0 (392) 24-21-25."
    },
    {
        "key": 11,
        "title": "Электронная почта ДПС МВД КР — ukdps@mvd.kg",
        "value": "Также можно обратиться через официальный сайт ДПС МВД КР. "
    }
]